....................
----------------------------------------------------------------------
Ran 20 tests in 0.002s

OK
Name               Stmts   Miss Branch BrPart  Cover
----------------------------------------------------
Diplomacy.py          65      2     52      2    97%
TestDiplomacy.py      85      0      2      1    99%
----------------------------------------------------
TOTAL                150      2     54      3    98%