............
----------------------------------------------------------------------
Ran 12 tests in 0.001s

OK
Name               Stmts   Miss Branch BrPart  Cover   Missing
--------------------------------------------------------------
Diplomacy.py          63      1     44      1    98%   57
TestDiplomacy.py      57      0      2      0   100%
--------------------------------------------------------------
TOTAL                120      1     46      1    99%
