............
----------------------------------------------------------------------
Ran 12 tests in 0.001s

OK
Name               Stmts   Miss Branch BrPart  Cover   Missing
--------------------------------------------------------------
Diplomacy.py         125      0     56      0   100%
TestDiplomacy.py      63      0      2      0   100%
--------------------------------------------------------------
TOTAL                188      0     58      0   100%
